Well I think that I need to explain a sort of things.

First: I was a very lonely guy. Very. Important persons thinked that I have no more relevance in my disease. Very ugly. Don't do this please. I was in a hospital for 2 years. I have Behçet. Very ugly. Don't do this please. My wife wants to live her life without me. Ok. I tried different things, really tried (do this if you can). When I see that there is no return I started to talk to others.

Helen was not the first, the true. But Helen talked to me with the right words. She is a master. Really sorry if I break some heath. But I don't see something in person. I talked too much with Moddy. Girl, you are amazing beatiful. And cool. The distance was the problem. I have no dought that you will find a good guy. And works with your beauthy. You are TOO MUCH beatiful.

I dont want to talk all names. Cool girls. Beatiful. I have 5000 friends here. Some are amazing beatiful.

Helen you entered in the door of my hearth with 2 foots kick. No chance to defence. You are cool, smart, beatiful ("tudo de bom" in Brazil). I swear that I will not make you cry. Never. I love you TOO MUCH.

If someone needs my help, talk to me. Thanks.

I only want be happy. Not make someone cries. Sorry.

Helen, I love you.
